project_2/project_2.sim/sim_1/behav/xsim/w_conv.vcd
$date
   Thu Jul 31 09:28:09 2025
$end
$version
  2020.1
$end
$timescale
  1ps
$end
$scope module conv_tb $end
$var reg 1 ! clk $end
$var reg 1 " rst $end
$var reg 1 # conv $end
$var wire 8 $ result [7:0] $end
$var wire 10 % address [9:0] $end
$var wire 1 & store $end
$var wire 1 ' done $end
$var wire 8 ( data1 [7:0] $end
$var wire 8 ) data2 [7:0] $end
$var wire 10 * addr1 [9:0] $end
$var wire 10 + addr2 [9:0] $end
$var wire 1 , load $end
$var parameter 32 - H [31:0] $end
$var parameter 32 . W [31:0] $end
$scope module mem_inst $end
$var wire 1 / clk $end
$var wire 1 0 rst $end
$var wire 1 , load $end
$var wire 10 * addr1 [9:0] $end
$var wire 10 + addr2 [9:0] $end
$var reg 8 1 data_out1 [7:0] $end
$var reg 8 2 data_out2 [7:0] $end
$upscope $end
$scope module dut $end
$var wire 1 3 clk $end
$var wire 1 4 rst $end
$var wire 1 5 conv $end
$var wire 8 $ result [7:0] $end
$var wire 10 % address [9:0] $end
$var wire 1 & store $end
$var wire 1 ' done $end
$var wire 1 , load $end
$var wire 8 ( data1 [7:0] $end
$var wire 8 ) data2 [7:0] $end
$var wire 10 * addr1 [9:0] $end
$var wire 10 + addr2 [9:0] $end
$var wire 1 6 addr_gen $end
$var wire 1 7 count_enable $end
$var wire 1 8 add $end
$var wire 1 9 load_full_patch $end
$var wire 1 : load_done $end
$var wire 5 ; i [4:0] $end
$var wire 5 < j [4:0] $end
$var parameter 32 = H [31:0] $end
$var parameter 32 > W [31:0] $end
$var parameter 32 ? IC [31:0] $end
$var parameter 32 @ LOAD_ADDR_LEN [31:0] $end
$var parameter 32 A STORE_ADDR_LEN [31:0] $end
$var parameter 32 B LOOP [31:0] $end
$scope module control_inst $end
$var wire 1 3 clk $end
$var wire 1 4 rst_n $end
$var wire 1 5 conv $end
$var wire 1 ' done $end
$var wire 1 : load_done $end
$var reg 1 C addr_gen $end
$var reg 1 D load $end
$var reg 1 E add $end
$var reg 1 F counter_enable $end
$var reg 1 G store $end
$var reg 4 H state [3:0] $end
$var reg 4 I next_state [3:0] $end
$var parameter 4 J IDLE [3:0] $end
$var parameter 4 K ADDR [3:0] $end
$var parameter 4 L LOAD [3:0] $end
$var parameter 4 M MAC0 [3:0] $end
$var parameter 4 N MAC1 [3:0] $end
$var parameter 4 O STORE [3:0] $end
$var parameter 4 P UPDATE_COUNTERS [3:0] $end
$var parameter 4 Q CHECK_DONE [3:0] $end
$var parameter 4 R IDLE2 [3:0] $end
$upscope $end
$scope module counters_inst $end
$var wire 1 3 clk $end
$var wire 1 4 rst_n $end
$var wire 1 7 count_enable $end
$var wire 1 5 conv $end
$var reg 5 S i [4:0] $end
$var reg 5 T j [4:0] $end
$var reg 1 U done $end
$var parameter 32 V LOOP [31:0] $end
$var parameter 32 W STEP [31:0] $end
$upscope $end
$scope module patch_addr_inst $end
$var wire 1 3 clk $end
$var wire 1 4 rst $end
$var wire 1 6 addr_gen $end
$var wire 5 ; i [4:0] $end
$var wire 5 < j [4:0] $end
$var reg 1 X load_full_patch $end
$var reg 5 Y prev_i [4:0] $end
$var parameter 32 Z IC [31:0] $end
$var parameter 32 [ ADDR_LEN [31:0] $end
$scope function compute_addr $end
$var reg 10 \ compute_addr [9:0] $end
$var integer 32 ] row $end
$var integer 32 ^ col $end
$upscope $end
$upscope $end
$scope module patch_data_inst $end
$var wire 1 3 clk $end
$var wire 1 4 rst $end
$var wire 1 , load $end
$var wire 1 9 load_full_patch $end
$var wire 8 ( data1 [7:0] $end
$var wire 8 ) data2 [7:0] $end
$var reg 10 _ addr1 [9:0] $end
$var reg 10 ` addr2 [9:0] $end
$var reg 1 a load_done $end
$var reg 4 b state [3:0] $end
$var parameter 32 c ADDR_LEN [31:0] $end
$upscope $end
$scope module comp_inst $end
$var wire 1 8 add $end
$var wire 1 3 clk $end
$var wire 1 4 rst $end
$var wire 5 ; i [4:0] $end
$var wire 5 < j [4:0] $end
$var reg 8 d result [7:0] $end
$var wire 10 % addr [9:0] $end
$var reg 8 e sum0 [7:0] $end
$var reg 8 f sum1 [7:0] $end
$var reg 8 g sum2 [7:0] $end
$var parameter 32 h W [31:0] $end
$var parameter 32 i ADDR_LEN [31:0] $end
$scope function clamp $end
$var reg 8 j clamp [7:0] $end
$var reg 16 k val [15:0] $end
$upscope $end
$upscope $end
$upscope $end
$scope begin Block88_11 $end
$var reg 32 l wmemtrnsf_fd $end
$scope begin Block88_12 $end
$var reg 32 m i1 $end
$upscope $end
$upscope $end
$upscope $end
$enddefinitions $end
#0
$dumpvars
0!
0"
1#
bx $
b0 %
0&
0'
bx (
bx )
b0 *
b0 +
0,
b11100 -
b11100 .
0/
00
bx 1
bx 2
03
04
15
06
07
08
19
0:
b0 ;
b0 <
b11100 =
b11100 >
b0 ?
b1001 @
b1001 A
b11011 B
0C
0D
0E
0F
0G
b0 H
b1 I
b0 J
b1 K
b10 L
b11 M
b100 N
b101 O
b110 P
b111 Q
b1000 R
b0 S
b0 T
0U
b11011 V
b1 W
1X
b11100 Y
b0 Z
b1001 [
bx \
bx ]
bx ^
b0 _
b0 `
0a
b0 b
b1001 c
bx d
bx e
bx f
bx g
b11100 h
b1001 i
bx j
bx k
b0 l
b0 m
$end
#10000
1!
b0 (
b0 )
1/
b0 1
b0 2
13
#20000
0!
1"
0/
10
03
14
#30000
1!
1/
13
16
1C
0D
0E
0F
0G
b1 H
b10 I
#40000
0!
0/
03
#50000
1!
1,
1/
13
06
0C
1D
0E
0F
0G
b10 H
b0 Y
b11100 \
b1 ]
b0 ^
#60000
0!
0/
03
#70000
1!
b1100010001 *
b1100010001 +
1/
13
b1100010001 _
b1100010001 `
b1 b
#80000
0!
0/
03
#90000
1!
1/
13
b10 b
#100000
0!
0/
03
#110000
1!
1/
13
b11 b
#120000
0!
0/
03
#130000
1!
1/
13
b100 b
#140000
0!
0/
03
#150000
1!
b0 *
b11100 +
1/
13
b0 _
b11100 `
b101 b
#160000
0!
0/
03
#170000
1!
1/
13
b110 b
#180000
0!
0/
03
#190000
1!
b1100010001 *
b1 +
1/
13
b1100010001 _
b1 `
b111 b
#200000
0!
0/
03
#210000
1!
1/
13
b1000 b
#220000
0!
0/
03
#230000
1!
b11101 *
b0 +
1/
13
b11101 _
b0 `
b1001 b
#240000
0!
0/
03
#250000
1!
1/
13
b1010 b
#260000
0!
0/
03
#270000
1!
1/
13
1:
0C
1D
0E
0F
0G
b11 I
1a
b0 b
#280000
0!
0/
03
#290000
1!
0,
1/
13
18
0:
0C
0D
1E
0F
0G
b11 H
b100 I
0a
#300000
0!
0/
03
#310000
1!
1/
13
0C
0D
1E
0F
0G
b100 H
b1000 I
b0 e
b0 f
b0 g
#320000
0!
0/
03
#330000
1!
b0 $
1/
13
08
0C
0D
0E
0F
0G
b1000 H
b101 I
b0 d
b0 j
b0 k
#340000
0!
0/
03
#350000
1!
1&
1/
13
0C
0D
0E
0F
1G
b101 H
b110 I
#360000
0!
0/
03
#370000
1!
0&
1/
13
17
0C
0D
0E
1F
0G
b110 H
b111 I
#380000
0!
0/
03
#390000
1!
b1 %
1/
13
07
b1 <
0C
0D
0E
0F
0G
b111 H
b0 I
b1 T
#400000
0!
0/
03
#410000
1!
1/
13
0C
0D
0E
0F
0G
b0 H
b1 I
#420000
0!
0/
03
#430000
1!
1/
13
16
1C
0D
0E
0F
0G
b1 H
b10 I
#440000
0!
0/
03
#450000
1!
1,
1/
13
06
09
0C
1D
0E
0F
0G
b10 H
0X
b11101 \
b1 ]
b1 ^
#460000
0!
0/
03
#470000
1!
b1100010001 *
b10 +
1/
13
b1100010001 _
b10 `
b111 b
#480000
0!
0/
03
#490000
1!
1/
13
b1000 b
#500000
0!
0/
03
#510000
1!
b11110 *
b0 +
1/
13
b11110 _
b0 `
b1001 b
#520000
0!
0/
03
#530000
1!
1/
13
b1010 b
#540000
0!
0/
03
#550000
1!
1/
13
1:
0C
1D
0E
0F
0G
b11 I
1a
b0 b
#560000
0!
0/
03
#570000
1!
0,
1/
13
18
0:
0C
0D
1E
0F
0G
b11 H
b100 I
0a
#580000
0!
0/
03
#590000
1!
1/
13
0C
0D
1E
0F
0G
b100 H
b1000 I
#600000
0!
0/
03
#610000
1!
1/
13
08
0C
0D
0E
0F
0G
b1000 H
b101 I
#620000
0!
0/
03
#630000
1!
1&
1/
13
0C
0D
0E
0F
1G
b101 H
b110 I
#640000
0!
0/
03
#650000
1!
0&
1/
13
17
0C
0D
0E
1F
0G
b110 H
b111 I
#660000
0!
0/
03
#670000
1!
b10 %
1/
13
07
b10 <
0C
0D
0E
0F
0G
b111 H
b0 I
b10 T
#680000
0!
0/
03
#690000
1!
1/
13
0C
0D
0E
0F
0G
b0 H
b1 I
#700000
0!
0/
03
#710000
1!
1/
13
16
1C
0D
0E
0F
0G
b1 H
b10 I
#720000
0!
0/
03
#730000
1!
1,
1/
13
06
0C
1D
0E
0F
0G
b10 H
b11111 \
b1 ]
b11 ^
#740000
0!
0/
03
#750000
1!
b1100010001 *
b11 +
1/
13
b1100010001 _
b11 `
b111 b
#760000
0!
0/
03
#770000
1!
1/
13
b1000 b
#780000
0!
0/
03
#790000
1!
b11111 *
b0 +
1/
13
b11111 _
b0 `
b1001 b
#800000
0!
0/
03
#810000
1!
1/
13
b1010 b
#820000
0!
0/
03
#830000
1!
1/
13
1:
0C
1D
0E
0F
0G
b11 I
1a
b0 b
#840000
0!
0/
03
#850000
1!
0,
1/
13
18
0:
0C
0D
1E
0F
0G
b11 H
b100 I
0a
#860000
0!
0/
03
#870000
1!
1/
13
0C
0D
1E
0F
0G
b100 H
b1000 I
#880000
0!
0/
03
#890000
1!
1/
13
08
0C
0D
0E
0F
0G
b1000 H
b101 I
#900000
0!
0/
03
#910000
1!
1&
1/
13
0C
0D
0E
0F
1G
b101 H
b110 I
#920000
0!
0/
03
#930000
1!
0&
1/
13
17
0C
0D
0E
1F
0G
b110 H
b111 I
#940000
0!
0/
03
#950000
1!
b11 %
1/
13
07
b11 <
0C
0D
0E
0F
0G
b111 H
b0 I
b11 T
#960000
0!
0/
03
#970000
1!
1/
13
0C
0D
0E
0F
0G
b0 H
b1 I
#980000
0!
0/
03
#990000
1!
1/
13
16
1C
0D
0E
0F
0G
b1 H
b10 I
#1000000
0!
0/
03
#1010000
1!
1,
1/
13
06
0C
1D
0E
0F
0G
b10 H
b100000 \
b1 ]
b100 ^
#1020000
0!
0/
03
#1030000
1!
b1100010001 *
b100 +
1/
13
b1100010001 _
b100 `
b111 b
#1040000
0!
0/
03
#1050000
1!
1/
13
b1000 b
#1060000
0!
0/
03
#1070000
1!
b100000 *
b0 +
1/
13
b100000 _
b0 `
b1001 b
#1080000
0!
0/
03
#1090000
1!
1/
13
b1010 b
#1100000
0!
0/
03
#1110000
1!
1/
13
1:
0C
1D
0E
0F
0G
b11 I
1a
b0 b
#1120000
0!
0/
03
#1130000
1!
0,
1/
13
18
0:
0C
0D
1E
0F
0G
b11 H
b100 I
0a
#1140000
0!
0/
03
#1150000
1!
1/
13
0C
0D
1E
0F
0G
b100 H
b1000 I
#1160000
0!
0/
03
#1170000
1!
1/
13
08
0C
0D
0E
0F
0G
b1000 H
b101 I
#1180000
0!
0/
03
#1190000
1!
1&
1/
13
0C
0D
0E
0F
1G
b101 H
b110 I
#1200000
0!
0/
03
#1210000
1!
0&
1/
13
17
0C
0D
0E
1F
0G
b110 H
b111 I
#1220000
0!
0/
03
#1230000
1!
b100 %
1/
13
07
b100 <
0C
0D
0E
0F
0G
b111 H
b0 I
b100 T
#1240000
0!
0/
03
#1250000
1!
1/
13
0C
0D
0E
0F
0G
b0 H
b1 I
#1260000
0!
0/
03
#1270000
1!
1/
13
16
1C
0D
0E
0F
0G
b1 H
b10 I
#1280000
0!
0/
03
#1290000
1!
1,
1/
13
06
0C
1D
0E
0F
0G
b10 H
b100001 \
b1 ]
b101 ^
#1300000
0!
0/
03
#1310000
1!
b1100010001 *
b101 +
1/
13
b1100010001 _
b101 `
b111 b
#1320000
0!
0/
03
#1330000
1!
1/
13
b1000 b
#1340000
0!
0/
03
#1350000
1!
b100001 *
b0 +
1/
13
b100001 _
b0 `
b1001 b
#1360000
0!
0/
03
#1370000
1!
1/
13
b1010 b
#1380000
0!
0/
03
#1390000
1!
1/
13
1:
0C
1D
0E
0F
0G
b11 I
1a
b0 b
#1400000
0!
0/
03
#1410000
1!
0,
1/
13
18
0:
0C
0D
1E
0F
0G
b11 H
b100 I
0a
#1420000
0!
0/
03
#1430000
1!
1/
13
0C
0D
1E
0F
0G
b100 H
b1000 I
#1440000
0!
0/
03
#1450000
1!
1/
13
08
0C
0D
0E
0F
0G
b1000 H
b101 I
#1460000
0!
0/
03
#1470000
1!
1&
1/
13
0C
0D
0E
0F
1G
b101 H
b110 I
#1480000
0!
0/
03
#1490000
1!
0&
1/
13
17
0C
0D
0E
1F
0G
b110 H
b111 I
#1500000
0!
0/
03
#1510000
1!
b101 %
1/
13
07
b101 <
0C
0D
0E
0F
0G
b111 H
b0 I
b101 T
#1520000
0!
0/
03
#1530000
1!
1/
13
0C
0D
0E
0F
0G
b0 H
b1 I
#1540000
0!
0/
03
#1550000
1!
1/
13
16
1C
0D
0E
0F
0G
b1 H
b10 I
#1560000
0!
0/
03
#1570000
1!
1,
1/
13
06
0C
1D
0E
0F
0G
b10 H
b100010 \
b1 ]
b110 ^
#1580000
0!
0/
03
#1590000
1!
b1100010001 *
b110 +
1/
13
b1100010001 _
b110 `
b111 b
#1600000
0!
0/
03
#1610000
1!
1/
13
b1000 b
#1620000
0!
0/
03
#1630000
1!
b100010 *
b0 +
1/
13
b100010 _
b0 `
b1001 b
#1640000
0!
0/
03
#1650000
1!
1/
13
b1010 b
#1660000
0!
0/
03
#1670000
1!
1/
13
1:
0C
1D
0E
0F
0G
b11 I
1a
b0 b
#1680000
0!
0/
03
#1690000
1!
0,
1/
13
18
0:
0C
0D
1E
0F
0G
b11 H
b100 I
0a
#1700000
0!
0/
03
#1710000
1!
1/
13
0C
0D
1E
0F
0G
b100 H
b1000 I
#1720000
0!
0/
03
#1730000
1!
1/
13
08
0C
0D
0E
0F
0G
b1000 H
b101 I
#1740000
0!
0/
03
#1750000
1!
1&
1/
13
0C
0D
0E
0F
1G
b101 H
b110 I
#1760000
0!
0/
03
#1770000
1!
0&
1/
13
17
0C
0D
0E
1F
0G
b110 H
b111 I
#1780000
0!
0/
03
#1790000
1!
b110 %
1/
13
07
b110 <
0C
0D
0E
0F
0G
b111 H
b0 I
b110 T
#1800000
0!
0/
03
#1810000
1!
1/
13
0C
0D
0E
0F
0G
b0 H
b1 I
#1820000
0!
0/
03
#1830000
1!
1/
13
16
1C
0D
0E
0F
0G
b1 H
b10 I
#1840000
0!
0/
03
#1850000
1!
1,
1/
13
06
0C
1D
0E
0F
0G
b10 H
b100011 \
b1 ]
b111 ^
#1860000
0!
0/
03
#1870000
1!
b1100010001 *
b111 +
1/
13
b1100010001 _
b111 `
b111 b
#1880000
0!
0/
03
#1890000
1!
1/
13
b1000 b
#1900000
0!
0/
03
#1910000
1!
b100011 *
b0 +
1/
13
b100011 _
b0 `
b1001 b
#1920000
0!
0/
03
#1930000
1!
1/
13
b1010 b
#1940000
0!
0/
03
#1950000
1!
1/
13
1:
0C
1D
0E
0F
0G
b11 I
1a
b0 b
#1960000
0!
0/
03
#1970000
1!
0,
1/
13
18
0:
0C
0D
1E
0F
0G
b11 H
b100 I
0a
#1980000
0!
0/
03
#1990000
1!
1/
13
0C
0D
1E
0F
0G
b100 H
b1000 I
#2000000
0!
0/
03
#2010000
1!
1/
13
08
0C
0D
0E
0F
0G
b1000 H
b101 I
#2020000
0!
0/
03
#2030000
1!
1&
1/
13
0C
0D
0E
0F
1G
b101 H
b110 I
#2040000
0!
0/
03
#2050000
1!
0&
1/
13
17
0C
0D
0E
1F
0G
b110 H
b111 I
#2060000
0!
0/
03
#2070000
1!
b111 %
1/
13
07
b111 <
0C
0D
0E
0F
0G
b111 H
b0 I
b111 T
#2080000
0!
0/
03
#2090000
1!
1/
13
0C
0D
0E
0F
0G
b0 H
b1 I
#2100000
0!
0/
03
#2110000
1!
1/
13
16
1C
0D
0E
0F
0G
b1 H
b10 I
#2120000
0!
0/
03
#2130000
1!
1,
1/
13
06
0C
1D
0E
0F
0G
b10 H
b100100 \
b1 ]
b1000 ^
#2140000
0!
0/
03
#2150000
1!
b1100010001 *
b1000 +
1/
13
b1100010001 _
b1000 `
b111 b
#2160000
0!
0/
03
#2170000
1!
1/
13
b1000 b
#2180000
0!
0/
03
#2190000
1!
b100100 *
b0 +
1/
13
b100100 _
b0 `
b1001 b
#2200000
0!
0/
03
#2210000
1!
1/
13
b1010 b
#2220000
0!
0/
03
#2230000
1!
1/
13
1:
0C
1D
0E
0F
0G
b11 I
1a
b0 b
#2240000
0!
0/
03
#2250000
1!
0,
1/
13
18
0:
0C
0D
1E
0F
0G
b11 H
b100 I
0a
#2260000
0!
0/
03
#2270000
1!
1/
13
0C
0D
1E
0F
0G
b100 H
b1000 I
#2280000
0!
0/
03
#2290000
1!
1/
13
08
0C
0D
0E
0F
0G
b1000 H
b101 I
#2300000
0!
0/
03
#2310000
1!
1&
1/
13
0C
0D
0E
0F
1G
b101 H
b110 I
#2320000
0!
0/
03
#2330000
1!
0&
1/
13
17
0C
0D
0E
1F
0G
b110 H
b111 I
#2340000
0!
0/
03
#2350000
1!
b1000 %
1/
13
07
b1000 <
0C
0D
0E
0F
0G
b111 H
b0 I
b1000 T
#2360000
0!
0/
03
#2370000
1!
1/
13
0C
0D
0E
0F
0G
b0 H
b1 I
#2380000
0!
0/
03
#2390000
1!
1/
13
16
1C
0D
0E
0F
0G
b1 H
b10 I
#2400000
0!
0/
03
#2410000
1!
1,
1/
13
06
0C
1D
0E
0F
0G
b10 H
b100101 \
b1 ]
b1001 ^
#2420000
0!
0/
03
#2430000
1!
b1100010001 *
b1001 +
1/
13
b1100010001 _
b1001 `
b111 b
#2440000
0!
0/
03
#2450000
1!
1/
13
b1000 b
#2460000
0!
0/
03
#2470000
1!
b100101 *
b0 +
1/
13
b100101 _
b0 `
b1001 b
#2480000
0!
0/
03
#2490000
1!
1/
13
b1010 b
#2500000
0!
0/
03
#2510000
1!
1/
13
1:
0C
1D
0E
0F
0G
b11 I
1a
b0 b
#2520000
0!
0/
03
#2530000
1!
0,
1/
13
18
0:
0C
0D
1E
0F
0G
b11 H
b100 I
0a
#2540000
0!
0/
03
#2550000
1!
1/
13
0C
0D
1E
0F
0G
b100 H
b1000 I
#2560000
0!
0/
03
#2570000
1!
1/
13
08
0C
0D
0E
0F
0G
b1000 H
b101 I
#2580000
0!
0/
03
#2590000
1!
1&
1/
13
0C
0D
0E
0F
1G
b101 H
b110 I
#2600000
0!
0/
03
#2610000
1!
0&
1/
13
17
0C
0D
0E
1F
0G
b110 H
b111 I
#2620000
0!
0/
03
#2630000
1!
b1001 %
1/
13
07
b1001 <
0C
0D
0E
0F
0G
b111 H
b0 I
b1001 T
#2640000
0!
0/
03
#2650000
1!
1/
13
0C
0D
0E
0F
0G
b0 H
b1 I
#2660000
0!
0/
03
#2670000
1!
1/
13
16
1C
0D
0E
0F
0G
b1 H
b10 I
#2680000
0!
0/
03
#2690000
1!
1,
1/
13
06
0C
1D
0E
0F
0G
b10 H
b100110 \
b1 ]
b1010 ^
#2700000
0!
0/
03
#2710000
1!
b1100010001 *
b1010 +
1/
13
b1100010001 _
b1010 `
b111 b
#2720000
0!
0/
03
#2730000
1!
1/
13
b1000 b
#2740000
0!
0/
03
#2750000
1!
b100110 *
b0 +
1/
13
b100110 _
b0 `
b1001 b
#2760000
0!
0/
03
#2770000
1!
1/
13
b1010 b
#2780000
0!
0/
03
#2790000
1!
1/
13
1:
0C
1D
0E
0F
0G
b11 I
1a
b0 b
#2800000
0!
0/
03
#2810000
1!
0,
1/
13
18
0:
0C
0D
1E
0F
0G
b11 H
b100 I
0a
#2820000
0!
0/
03
#2830000
1!
1/
13
0C
0D
1E
0F
0G
b100 H
b1000 I
#2840000
0!
0/
03
#2850000
1!
1/
13
08
0C
0D
0E
0F
0G
b1000 H
b101 I
#2860000
0!
0/
03
#2870000
1!
1&
1/
13
0C
0D
0E
0F
1G
b101 H
b110 I
#2880000
0!
0/
03
#2890000
1!
0&
1/
13
17
0C
0D
0E
1F
0G
b110 H
b111 I
#2900000
0!
0/
03
#2910000
1!
b1010 %
1/
13
07
b1010 <
0C
0D
0E
0F
0G
b111 H
b0 I
b1010 T
#2920000
0!
0/
03
#2930000
1!
1/
13
0C
0D
0E
0F
0G
b0 H
b1 I
#2940000
0!
0/
03
#2950000
1!
1/
13
16
1C
0D
0E
0F
0G
b1 H
b10 I
#2960000
0!
0/
03
#2970000
1!
1,
1/
13
06
0C
1D
0E
0F
0G
b10 H
b100111 \
b1 ]
b1011 ^
#2980000
0!
0/
03
#2990000
1!
b1100010001 *
b1011 +
1/
13
b1100010001 _
b1011 `
b111 b
#3000000
0!
0/
03
#3010000
1!
1/
13
b1000 b
#3020000
0!
0/
03
#3030000
1!
b100111 *
b0 +
1/
13
b100111 _
b0 `
b1001 b
#3040000
0!
0/
03
#3050000
1!
1/
13
b1010 b
#3060000
0!
0/
03
#3070000
1!
1/
13
1:
0C
1D
0E
0F
0G
b11 I
1a
b0 b
#3080000
0!
0/
03
#3090000
1!
0,
1/
13
18
0:
0C
0D
1E
0F
0G
b11 H
b100 I
0a
#3100000
0!
0/
03
#3110000
1!
1/
13
0C
0D
1E
0F
0G
b100 H
b1000 I
#3120000
0!
0/
03
#3130000
1!
1/
13
08
0C
0D
0E
0F
0G
b1000 H
b101 I
#3140000
0!
0/
03
#3150000
1!
1&
1/
13
0C
0D
0E
0F
1G
b101 H
b110 I
#3160000
0!
0/
03
#3170000
1!
0&
1/
13
17
0C
0D
0E
1F
0G
b110 H
b111 I
#3180000
0!
0/
03
#3190000
1!
b1011 %
1/
13
07
b1011 <
0C
0D
0E
0F
0G
b111 H
b0 I
b1011 T
#3200000
0!
0/
03
#3210000
1!
1/
13
0C
0D
0E
0F
0G
b0 H
b1 I
#3220000
0!
0/
03
#3230000
1!
1/
13
16
1C
0D
0E
0F
0G
b1 H
b10 I
#3240000
0!
0/
03
#3250000
1!
1,
1/
13
06
0C
1D
0E
0F
0G
b10 H
b101000 \
b1 ]
b1100 ^
#3260000
0!
0/
03
#3270000
1!
b1100010001 *
b1100 +
1/
13
b1100010001 _
b1100 `
b111 b
#3280000
0!
0/
03
#3290000
1!
1/
13
b1000 b
#3300000
0!
0/
03
#3310000
1!
b101000 *
b0 +
1/
13
b101000 _
b0 `
b1001 b
#3320000
0!
0/
03
#3330000
1!
1/
13
b1010 b
#3340000
0!
0/
03
#3350000
1!
1/
13
1:
0C
1D
0E
0F
0G
b11 I
1a
b0 b
#3360000
0!
0/
03
#3370000
1!
0,
1/
13
18
0:
0C
0D
1E
0F
0G
b11 H
b100 I
0a
#3380000
0!
0/
03
#3390000
1!
1/
13
0C
0D
1E
0F
0G
b100 H
b1000 I
#3400000
0!
0/
03
#3410000
1!
1/
13
08
0C
0D
0E
0F
0G
b1000 H
b101 I
#3420000
0!
0/
03
#3430000
1!
1&
1/
13
0C
0D
0E
0F
1G
b101 H
b110 I
#3440000
0!
0/
03
#3450000
1!
0&
1/
13
17
0C
0D
0E
1F
0G
b110 H
b111 I
#3460000
0!
0/
03
#3470000
1!
b1100 %
1/
13
07
b1100 <
0C
0D
0E
0F
0G
b111 H
b0 I
b1100 T
#3480000
0!
0/
03
#3490000
1!
1/
13
0C
0D
0E
0F
0G
b0 H
b1 I
#3500000
0!
0/
03
#3510000
1!
1/
13
16
1C
0D
0E
0F
0G
b1 H
b10 I
#3520000
0!
0/
03
#3530000
1!
1,
1/
13
06
0C
1D
0E
0F
0G
b10 H
b101001 \
b1 ]
b1101 ^
#3540000
0!
0/
03
#3550000
1!
b1100010001 *
b1101 +
1/
13
b1100010001 _
b1101 `
b111 b
#3560000
0!
0/
03
#3570000
1!
1/
13
b1000 b
#3580000
0!
0/
03
#3590000
1!
b101001 *
b0 +
1/
13
b101001 _
b0 `
b1001 b
#3600000
0!
0/
03
#3610000
1!
1/
13
b1010 b
#3620000
0!
0/
03
#3630000
1!
1/
13
1:
0C
1D
0E
0F
0G
b11 I
1a
b0 b
#3640000
0!
0/
03
#3650000
1!
0,
1/
13
18
0:
0C
0D
1E
0F
0G
b11 H
b100 I
0a
#3660000
0!
0/
03
#3670000
1!
1/
13
0C
0D
1E
0F
0G
b100 H
b1000 I
#3680000
0!
0/
03
#3690000
1!
1/
13
08
0C
0D
0E
0F
0G
b1000 H
b101 I
#3700000
0!
0/
03
#3710000
1!
1&
1/
13
0C
0D
0E
0F
1G
b101 H
b110 I
#3720000
0!
0/
03
#3730000
1!
0&
1/
13
17
0C
0D
0E
1F
0G
b110 H
b111 I
#3740000
0!
0/
03
#3750000
1!
b1101 %
1/
13
07
b1101 <
0C
0D
0E
0F
0G
b111 H
b0 I
b1101 T
#3760000
0!
0/
03
#3770000
1!
1/
13
0C
0D
0E
0F
0G
b0 H
b1 I
#3780000
0!
0/
03
#3790000
1!
1/
13
16
1C
0D
0E
0F
0G
b1 H
b10 I
#3800000
0!
0/
03
#3810000
1!
1,
1/
13
06
0C
1D
0E
0F
0G
b10 H
b101010 \
b1 ]
b1110 ^
#3820000
0!
0/
03
#3830000
1!
b1100010001 *
b1110 +
1/
13
b1100010001 _
b1110 `
b111 b
#3840000
0!
0/
03
#3850000
1!
1/
13
b1000 b
#3860000
0!
0/
03
#3870000
1!
b101010 *
b0 +
1/
13
b101010 _
b0 `
b1001 b
#3880000
0!
0/
03
#3890000
1!
1/
13
b1010 b
#3900000
0!
0/
03
#3910000
1!
1/
13
1:
0C
1D
0E
0F
0G
b11 I
1a
b0 b
#3920000
0!
0/
03
#3930000
1!
0,
1/
13
18
0:
0C
0D
1E
0F
0G
b11 H
b100 I
0a
#3940000
0!
0/
03
#3950000
1!
1/
13
0C
0D
1E
0F
0G
b100 H
b1000 I
#3960000
0!
0/
03
#3970000
1!
1/
13
08
0C
0D
0E
0F
0G
b1000 H
b101 I
#3980000
0!
0/
03
#3990000
1!
1&
1/
13
0C
0D
0E
0F
1G
b101 H
b110 I
#4000000
0!
0/
03
#4010000
1!
0&
1/
13
17
0C
0D
0E
1F
0G
b110 H
b111 I
#4020000
0!
0/
03
#4030000
1!
b1110 %
1/
13
07
b1110 <
0C
0D
0E
0F
0G
b111 H
b0 I
b1110 T
#4040000
0!
0/
03
#4050000
1!
1/
13
0C
0D
0E
0F
0G
b0 H
b1 I
#4060000
0!
0/
03
#4070000
1!
1/
13
16
1C
0D
0E
0F
0G
b1 H
b10 I
#4080000
0!
0/
03
#4090000
1!
1,
1/
13
06
0C
1D
0E
0F
0G
b10 H
b101011 \
b1 ]
b1111 ^
#4100000
0!
0/
03
#4110000
1!
b1100010001 *
b1111 +
1/
13
b1100010001 _
b1111 `
b111 b
#4120000
0!
0/
03
#4130000
1!
1/
13
b1000 b
#4140000
0!
0/
03
#4150000
1!
b101011 *
b0 +
1/
13
b101011 _
b0 `
b1001 b
#4160000
0!
0/
03
#4170000
1!
1/
13
b1010 b
#4180000
0!
0/
03
#4190000
1!
1/
13
1:
0C
1D
0E
0F
0G
b11 I
1a
b0 b
#4200000
0!
0/
03
#4210000
1!
0,
1/
13
18
0:
0C
0D
1E
0F
0G
b11 H
b100 I
0a
#4220000
0!
0/
03
#4230000
1!
1/
13
0C
0D
1E
0F
0G
b100 H
b1000 I
#4240000
0!
0/
03
#4250000
1!
1/
13
08
0C
0D
0E
0F
0G
b1000 H
b101 I
#4260000
0!
0/
03
#4270000
1!
1&
1/
13
0C
0D
0E
0F
1G
b101 H
b110 I
#4280000
0!
0/
03
#4290000
1!
0&
1/
13
17
0C
0D
0E
1F
0G
b110 H
b111 I
#4300000
0!
0/
03
#4310000
1!
b1111 %
1/
13
07
b1111 <
0C
0D
0E
0F
0G
b111 H
b0 I
b1111 T
#4320000
0!
0/
03
#4330000
1!
1/
13
0C
0D
0E
0F
0G
b0 H
b1 I
#4340000
0!
0/
03
#4350000
1!
1/
13
16
1C
0D
0E
0F
0G
b1 H
b10 I
#4360000
0!
0/
03
#4370000
1!
1,
1/
13
06
0C
1D
0E
0F
0G
b10 H
b101100 \
b1 ]
b10000 ^
#4380000
0!
0/
03
#4390000
1!
b1100010001 *
b10000 +
1/
13
b1100010001 _
b10000 `
b111 b
#4400000
0!
0/
03
#4410000
1!
1/
13
b1000 b
#4420000
0!
0/
03
#4430000
1!
b101100 *
b0 +
1/
13
b101100 _
b0 `
b1001 b
#4440000
0!
0/
03
#4450000
1!
1/
13
b1010 b
#4460000
0!
0/
03
#4470000
1!
1/
13
1:
0C
1D
0E
0F
0G
b11 I
1a
b0 b
#4480000
0!
0/
03
#4490000
1!
0,
1/
13
18
0:
0C
0D
1E
0F
0G
b11 H
b100 I
0a
#4500000
0!
0/
03
#4510000
1!
1/
13
0C
0D
1E
0F
0G
b100 H
b1000 I
#4520000
0!
0/
03
#4530000
1!
1/
13
08
0C
0D
0E
0F
0G
b1000 H
b101 I
#4540000
0!
0/
03
#4550000
1!
1&
1/
13
0C
0D
0E
0F
1G
b101 H
b110 I
#4560000
0!
0/
03
#4570000
1!
0&
1/
13
17
0C
0D
0E
1F
0G
b110 H
b111 I
#4580000
0!
0/
03
#4590000
1!
b10000 %
1/
13
07
b10000 <
0C
0D
0E
0F
0G
b111 H
b0 I
b10000 T
#4600000
0!
0/
03
#4610000
1!
1/
13
0C
0D
0E
0F
0G
b0 H
b1 I
